// Jest Snapshot v1, https://goo.gl/fbAQLP

exports[`AnalysisFormComponent should render objects from events 1`] = `
<div
  className="container"
>
  <div
    className="page-header"
  >
    <h1>
      Analyse
    </h1>
  </div>
  <form
    className="form-horizontal"
  >
    <div>
      <MetaInformation
        registeredBy="1"
        registeredDate="1"
        updatedBy="1"
        updatedDate="1"
      />
      <hr />
    </div>
    <FormText
      elementWidth={6}
      id="type"
      label="Type analyse"
      labelWidth={2}
      value=""
    />
    <FormDescriptionAttribute
      attr={
        Object {
          "attributeKey": "method",
          "attributeType": "lala",
        }
      }
      elementWidth={3}
      id="type"
      label="Metode"
      labelWidth={2}
      onChange="method"
      value="test"
    />
    <FormInputSelect
      chooseLabel="Velg formål"
      elementWidth={3}
      id="reason"
      label="Formål med analysen"
      labelWidth={2}
      onChange=""
      value="1"
      values={
        Array [
          Object {
            "id": 1,
            "value": "mål mål",
          },
        ]
      }
    />
    <ValidatedFormGroup
      fields={
        Array [
          Object {
            "defaultValue": 1,
            "mapper": Object {
              "fromRaw": [Function],
              "toRaw": [Function],
            },
            "name": "status",
            "rawValue": "1",
            "validator": Object {
              "rawValidator": null,
              "valueValidator": [Function],
            },
            "value": 1,
          },
        ]
      }
    >
      <label
        className="control-label col-md-2"
        htmlFor="status"
      >
        Status på analysen
      </label>
      <div
        className="col-md-3"
      >
        <select
          className="form-control"
          id="status"
          onChange="status"
          value="1"
        >
          <option
            value=""
          >
            Velg status
          </option>
          <option
            value="1"
          >
            Under forberedelse
          </option>
          <option
            value="2"
          >
            Analyse påbegynt
          </option>
          <option
            value="3"
          >
            Analyse ferdig
          </option>
          <option
            value="4"
          >
            Avsluttet uten resultat
          </option>
        </select>
      </div>
    </ValidatedFormGroup>
    <FormSelect
      chooseLabel="Velg analysested"
      elementWidth={3}
      id="place"
      label="Analysested"
      labelWidth={2}
      onChange="orgId"
      value="1"
      values={
        Array [
          Object {
            "id": 1,
            "value": "Kokko",
          },
          Object {
            "id": 2,
            "value": "Kokkosbolle",
          },
        ]
      }
    />
    <FormInput
      elementWidth={3}
      id="casenumber"
      label="Saksnummer"
      labelWidth={2}
      onChange=""
      value=""
    />
    <hr />
    <FormTextArea
      elementWidth={6}
      id="note"
      label="Kommentar"
      labelWidth={2}
      onChange=""
      rows={5}
      value="1"
    />
    <div
      className="form-group"
    >
      <label
        className="control-label"
      >
        Personer tilknyttet analysen
      </label>
    </div>
    <Component
      appSession={
        Object {
          "accessToken": "45667",
          "actor": Object {
            "fn": "Test",
          },
          "collectionId": "1234",
          "language": Object {
            "isEn": false,
            "isNo": true,
          },
          "museumId": 99,
        }
      }
      fieldName=""
      getDisplayNameForRole={[Function]}
      personData={
        Array [
          Object {
            "name": "jarl",
            "role": "responsible",
          },
          Object {
            "date": "2017-06-29T07:54:22+00:00",
            "name": "line",
            "role": "creator",
          },
        ]
      }
      roles={
        Array [
          "responsible",
          "doneBy",
          "administrator",
          "completedBy",
        ]
      }
      showDateForRole={[Function]}
      updateForm={[Function]}
    />
    <hr />
    <div
      className="well"
    >
      <div
        className="form-group"
      >
        <label
          className="col-md-12"
          htmlFor="objects"
        >
          Objekter/prøver
        </label>
      </div>
      <div
        className="form-group"
      >
        <div
          className="col-md-12 col-md-offset-0"
        >
          <ExpandableObjectTable
            appSession={
              Object {
                "accessToken": "45667",
                "actor": Object {
                  "fn": "Test",
                },
                "collectionId": "1234",
                "language": Object {
                  "isEn": false,
                  "isNo": true,
                },
                "museumId": 99,
              }
            }
            data={Array []}
            extraAttributes={null}
            history={
              Object {
                "goBack": [Function],
                "goForward": [Function],
                "push": [Function],
                "replace": [Function],
              }
            }
            updateForm={[Function]}
          />
        </div>
      </div>
      <hr />
      <EditResult
        appSession={
          Object {
            "accessToken": "45667",
            "actor": Object {
              "fn": "Test",
            },
            "collectionId": "1234",
            "language": Object {
              "isEn": false,
              "isNo": true,
            },
            "museumId": 99,
          }
        }
        comments="1"
        externalSource="1"
        extraAttributes={null}
        history={
          Object {
            "goBack": [Function],
            "goForward": [Function],
            "push": [Function],
            "replace": [Function],
          }
        }
        parentObjectId={null}
        resultFiles={Array []}
        updateComments={[Function]}
        updateExternalSource={[Function]}
        updateExtraResultAttribute={[Function]}
        updateResultFiles={[Function]}
      />
      <div
        className="form-group"
      >
        <label
          className="control-label col-md-2"
          htmlFor="isRestricted"
        >
          Klausulering
        </label>
        <div
          className="col-md-10"
        >
          <div
            className="btn-group"
            data-toggle="buttons"
          >
            <label
              className="btn btn-default active"
            >
              <input
                name="options"
                onClick=""
                type="radio"
              />
               
              Ja
            </label>
            <label
              className="btn btn-default "
            >
              <input
                name="options"
                onClick=""
                type="radio"
              />
               
              Nei
            </label>
          </div>
        </div>
      </div>
      <FormRestriction
        appSession={
          Object {
            "accessToken": "45667",
            "actor": Object {
              "fn": "Test",
            },
            "collectionId": "1234",
            "language": Object {
              "isEn": false,
              "isNo": true,
            },
            "museumId": 99,
          }
        }
        clickSave={[Function]}
        form={
          Object {
            "actor": Object {
              "defaultValue": "1",
              "mapper": Object {
                "fromRaw": [Function],
                "toRaw": [Function],
              },
              "name": "",
              "rawValue": "1",
              "validator": Object {
                "rawValidator": null,
              },
              "value": "1",
            },
            "administrator": Object {
              "defaultValue": "1",
              "mapper": Object {
                "fromRaw": [Function],
                "toRaw": [Function],
              },
              "name": "",
              "rawValue": "1",
              "validator": Object {
                "rawValidator": null,
              },
              "value": "1",
            },
            "analysisTypeCategory": Object {
              "defaultValue": "1",
              "mapper": Object {
                "fromRaw": [Function],
                "toRaw": [Function],
              },
              "name": "",
              "rawValue": "1",
              "validator": Object {
                "rawValidator": null,
              },
              "value": "1",
            },
            "analysisTypeId": Object {
              "defaultValue": 1,
              "mapper": Object {
                "fromRaw": [Function],
                "toRaw": [Function],
              },
              "name": "",
              "rawValue": "1",
              "validator": Object {
                "rawValidator": null,
                "valueValidator": [Function],
              },
              "value": 1,
            },
            "caseNumbers": Object {
              "defaultValue": Array [],
              "mapper": Object {
                "fromRaw": [Function],
                "toRaw": [Function],
              },
              "name": "",
              "rawValue": Array [],
              "validator": Object {
                "rawValidator": null,
              },
              "value": Array [],
            },
            "comments": Object {
              "defaultValue": "1",
              "mapper": Object {
                "fromRaw": [Function],
                "toRaw": [Function],
              },
              "name": "",
              "rawValue": "1",
              "validator": Object {
                "rawValidator": null,
              },
              "value": "1",
            },
            "completeAnalysis": Object {
              "defaultValue": "1",
              "mapper": Object {
                "fromRaw": [Function],
                "toRaw": [Function],
              },
              "name": "",
              "rawValue": "1",
              "validator": Object {
                "rawValidator": null,
              },
              "value": "1",
            },
            "completedBy": Object {
              "defaultValue": "1",
              "mapper": Object {
                "fromRaw": [Function],
                "toRaw": [Function],
              },
              "name": "",
              "rawValue": "1",
              "validator": Object {
                "rawValidator": null,
              },
              "value": "1",
            },
            "completedDate": Object {
              "defaultValue": "1",
              "mapper": Object {
                "fromRaw": [Function],
                "toRaw": [Function],
              },
              "name": "",
              "rawValue": "1",
              "validator": Object {
                "rawValidator": null,
              },
              "value": "1",
            },
            "doneBy": Object {
              "defaultValue": "1",
              "mapper": Object {
                "fromRaw": [Function],
                "toRaw": [Function],
              },
              "name": "",
              "rawValue": "1",
              "validator": Object {
                "rawValidator": null,
              },
              "value": "1",
            },
            "doneDate": Object {
              "defaultValue": "1",
              "mapper": Object {
                "fromRaw": [Function],
                "toRaw": [Function],
              },
              "name": "",
              "rawValue": "1",
              "validator": Object {
                "rawValidator": null,
              },
              "value": "1",
            },
            "eventDate": Object {
              "defaultValue": "1",
              "mapper": Object {
                "fromRaw": [Function],
                "toRaw": [Function],
              },
              "name": "",
              "rawValue": "1",
              "validator": Object {
                "rawValidator": null,
              },
              "value": "1",
            },
            "events": Object {
              "defaultValue": Array [],
              "mapper": Object {
                "fromRaw": [Function],
                "toRaw": [Function],
              },
              "name": "",
              "rawValue": Array [],
              "validator": Object {
                "rawValidator": null,
              },
              "value": Array [],
            },
            "externalSource": Object {
              "defaultValue": "1",
              "mapper": Object {
                "fromRaw": [Function],
                "toRaw": [Function],
              },
              "name": "",
              "rawValue": "1",
              "validator": Object {
                "rawValidator": null,
              },
              "value": "1",
            },
            "id": Object {
              "defaultValue": 1,
              "mapper": Object {
                "fromRaw": [Function],
                "toRaw": [Function],
              },
              "name": "",
              "rawValue": "1",
              "validator": Object {
                "rawValidator": null,
                "valueValidator": [Function],
              },
              "value": 1,
            },
            "museumNo": Object {
              "defaultValue": "1",
              "mapper": Object {
                "fromRaw": [Function],
                "toRaw": [Function],
              },
              "name": "",
              "rawValue": "1",
              "validator": Object {
                "rawValidator": null,
              },
              "value": "1",
            },
            "note": Object {
              "defaultValue": "1",
              "mapper": Object {
                "fromRaw": [Function],
                "toRaw": [Function],
              },
              "name": "",
              "rawValue": "1",
              "validator": Object {
                "rawValidator": null,
              },
              "value": "1",
            },
            "objectId": Object {
              "defaultValue": "1",
              "mapper": Object {
                "fromRaw": [Function],
                "toRaw": [Function],
              },
              "name": "",
              "rawValue": "1",
              "validator": Object {
                "rawValidator": null,
              },
              "value": "1",
            },
            "orgId": Object {
              "defaultValue": 1,
              "mapper": Object {
                "fromRaw": [Function],
                "toRaw": [Function],
              },
              "name": "orgId",
              "rawValue": "1",
              "validator": Object {
                "rawValidator": null,
                "valueValidator": [Function],
              },
              "value": 1,
            },
            "partOf": Object {
              "defaultValue": "1",
              "mapper": Object {
                "fromRaw": [Function],
                "toRaw": [Function],
              },
              "name": "",
              "rawValue": "1",
              "validator": Object {
                "rawValidator": null,
              },
              "value": "1",
            },
            "persons": Object {
              "defaultValue": Array [
                Object {
                  "name": "jarl",
                  "role": "responsible",
                },
                Object {
                  "date": "2017-06-29T07:54:22+00:00",
                  "name": "line",
                  "role": "creator",
                },
              ],
              "mapper": Object {
                "fromRaw": [Function],
                "toRaw": [Function],
              },
              "name": "",
              "rawValue": Array [
                Object {
                  "name": "jarl",
                  "role": "responsible",
                },
                Object {
                  "date": "2017-06-29T07:54:22+00:00",
                  "name": "line",
                  "role": "creator",
                },
              ],
              "validator": Object {
                "rawValidator": null,
              },
              "value": Array [
                Object {
                  "name": "jarl",
                  "role": "responsible",
                },
                Object {
                  "date": "2017-06-29T07:54:22+00:00",
                  "name": "line",
                  "role": "creator",
                },
              ],
            },
            "reason": Object {
              "defaultValue": "1",
              "mapper": Object {
                "fromRaw": [Function],
                "toRaw": [Function],
              },
              "name": "",
              "rawValue": "1",
              "validator": Object {
                "rawValidator": null,
              },
              "value": "1",
            },
            "registeredBy": Object {
              "defaultValue": "1",
              "mapper": Object {
                "fromRaw": [Function],
                "toRaw": [Function],
              },
              "name": "",
              "rawValue": "1",
              "validator": Object {
                "rawValidator": null,
              },
              "value": "1",
            },
            "registeredByName": Object {
              "defaultValue": "1",
              "mapper": Object {
                "fromRaw": [Function],
                "toRaw": [Function],
              },
              "name": "",
              "rawValue": "1",
              "validator": Object {
                "rawValidator": null,
              },
              "value": "1",
            },
            "registeredDate": Object {
              "defaultValue": "1",
              "mapper": Object {
                "fromRaw": [Function],
                "toRaw": [Function],
              },
              "name": "",
              "rawValue": "1",
              "validator": Object {
                "rawValidator": null,
              },
              "value": "1",
            },
            "responsible": Object {
              "defaultValue": "1",
              "mapper": Object {
                "fromRaw": [Function],
                "toRaw": [Function],
              },
              "name": "",
              "rawValue": "1",
              "validator": Object {
                "rawValidator": null,
              },
              "value": "1",
            },
            "restriction": Object {
              "defaultValue": Object {
                "cancelledReason": "meh",
                "caseNumbers": Array [
                  "dddd",
                  "44555",
                  "55555",
                ],
                "expirationDate": "2017-03-29T07:54:22+00:00",
                "reason": "fin årsak",
                "requester": "3cbf15cb-8348-4e66-99a4-bc314da57444",
                "requesterName": "Jarl",
              },
              "mapper": Object {
                "fromRaw": [Function],
                "toRaw": [Function],
              },
              "name": "",
              "rawValue": Object {
                "cancelledReason": "meh",
                "caseNumbers": Array [
                  "dddd",
                  "44555",
                  "55555",
                ],
                "expirationDate": "2017-03-29T07:54:22+00:00",
                "reason": "fin årsak",
                "requester": "3cbf15cb-8348-4e66-99a4-bc314da57444",
                "requesterName": "Jarl",
              },
              "validator": Object {},
              "value": Object {
                "cancelledReason": "meh",
                "caseNumbers": Array [
                  "dddd",
                  "44555",
                  "55555",
                ],
                "expirationDate": "2017-03-29T07:54:22+00:00",
                "reason": "fin årsak",
                "requester": "3cbf15cb-8348-4e66-99a4-bc314da57444",
                "requesterName": "Jarl",
              },
            },
            "restrictions": Object {
              "defaultValue": true,
              "mapper": Object {
                "fromRaw": [Function],
                "toRaw": [Function],
              },
              "name": "",
              "rawValue": true,
              "validator": Object {},
              "value": true,
            },
            "result": Object {
              "defaultValue": null,
              "mapper": Object {
                "fromRaw": [Function],
                "toRaw": [Function],
              },
              "name": "",
              "rawValue": null,
              "validator": Object {},
              "value": null,
            },
            "resultFiles": Object {
              "defaultValue": Array [],
              "mapper": Object {
                "fromRaw": [Function],
                "toRaw": [Function],
              },
              "name": "",
              "rawValue": Array [],
              "validator": Object {
                "rawValidator": null,
              },
              "value": Array [],
            },
            "status": Object {
              "defaultValue": 1,
              "mapper": Object {
                "fromRaw": [Function],
                "toRaw": [Function],
              },
              "name": "status",
              "rawValue": "1",
              "validator": Object {
                "rawValidator": null,
                "valueValidator": [Function],
              },
              "value": 1,
            },
            "subNo": Object {
              "defaultValue": "1",
              "mapper": Object {
                "fromRaw": [Function],
                "toRaw": [Function],
              },
              "name": "",
              "rawValue": "1",
              "validator": Object {
                "rawValidator": null,
              },
              "value": "1",
            },
            "term": Object {
              "defaultValue": "1",
              "mapper": Object {
                "fromRaw": [Function],
                "toRaw": [Function],
              },
              "name": "",
              "rawValue": "1",
              "validator": Object {
                "rawValidator": null,
              },
              "value": "1",
            },
            "type": Object {
              "defaultValue": "1",
              "mapper": Object {
                "fromRaw": [Function],
                "toRaw": [Function],
              },
              "name": "",
              "rawValue": "1",
              "validator": Object {
                "rawValidator": null,
              },
              "value": "1",
            },
            "updatedBy": Object {
              "defaultValue": "1",
              "mapper": Object {
                "fromRaw": [Function],
                "toRaw": [Function],
              },
              "name": "",
              "rawValue": "1",
              "validator": Object {
                "rawValidator": null,
              },
              "value": "1",
            },
            "updatedByName": Object {
              "defaultValue": "1",
              "mapper": Object {
                "fromRaw": [Function],
                "toRaw": [Function],
              },
              "name": "",
              "rawValue": "1",
              "validator": Object {
                "rawValidator": null,
              },
              "value": "1",
            },
            "updatedDate": Object {
              "defaultValue": "1",
              "mapper": Object {
                "fromRaw": [Function],
                "toRaw": [Function],
              },
              "name": "",
              "rawValue": "1",
              "validator": Object {
                "rawValidator": null,
              },
              "value": "1",
            },
          }
        }
        isRestrictionValidForCancellation={false}
        toggleCancelDialog={[Function]}
        updateForm={[Function]}
      />
    </div>
    <hr />
    <button
      className="btn btn-primary"
      disabled={false}
      onClick={[Function]}
    >
      Lagre
    </button>
     
    <button
      className="btn btn-default"
      onClick={[Function]}
    >
      Avbryt
    </button>
  </form>
</div>
`;
